…
### 4.1 Data import

This section imports the csv hotel data set into R. Click the right
**code** to see associated codes. Following table show the first 10k
rows of data in the data set. There are nearly 120k rows of data.

``` r
mydata <- read_csv("hotel_bookings.csv")

mydata
```

    ## # A tibble: 119,390 x 32
    ##    hotel        is_canceled lead_time arrival_date_year arrival_date_month
    ##    <chr>              <dbl>     <dbl>             <dbl> <chr>             
    ##  1 Resort Hotel           0       342              2015 July              
    ##  2 Resort Hotel           0       737              2015 July              
    ##  3 Resort Hotel           0         7              2015 July              
    ##  4 Resort Hotel           0        13              2015 July              
    ##  5 Resort Hotel           0        14              2015 July              
    ##  6 Resort Hotel           0        14              2015 July              
    ##  7 Resort Hotel           0         0              2015 July              
    ##  8 Resort Hotel           0         9              2015 July              
    ##  9 Resort Hotel           1        85              2015 July              
    ## 10 Resort Hotel           1        75              2015 July              
    ## # ... with 119,380 more rows, and 27 more variables:
    ## #   arrival_date_week_number <dbl>, arrival_date_day_of_month <dbl>,
    ## #   stays_in_weekend_nights <dbl>, stays_in_week_nights <dbl>, adults <dbl>,
    ## #   children <dbl>, babies <dbl>, meal <chr>, country <chr>,
    ## #   market_segment <chr>, distribution_channel <chr>, is_repeated_guest <dbl>,
    ## #   previous_cancellations <dbl>, previous_bookings_not_canceled <dbl>,
    ## #   reserved_room_type <chr>, assigned_room_type <chr>, ...
…
